Homework Assignment 1
…
## # A tibble: 2 x 2
##   manufacturer count
##   <fct>        <int>
## 1 BOEING       82912
## 2 EMBRAER      66068

#table output
merge_df %>% 
  filter(manufacturer == c("BOEING", "EMBRAER")) %>% 
  group_by(manufacturer, year.x, month) %>% 
  summarize(flights = n(), .groups = "drop")

## # A tibble: 24 x 4
##    manufacturer year.x month flights
##    <fct>         <int> <fct>   <int>
##  1 BOEING         2013 1        3337
##  2 BOEING         2013 2        3014
##  3 BOEING         2013 3        3719
##  4 BOEING         2013 4        3565
##  5 BOEING         2013 5        3562
##  6 BOEING         2013 6        3522
##  7 BOEING         2013 7        3726
##  8 BOEING         2013 8        3870
##  9 BOEING         2013 9        3206
## 10 BOEING         2013 10       3292
## #  with 14 more rows
…
Q3: How does average arrival and departure delays vary by number of seats and does a correlation exist between seats and delays?

merge_df %>% 
  group_by(seats) %>% 
  summarize(avg_arr_delay = mean(arr_delay, na.rm = TRUE), avg_dep_delay = mean(dep_delay, na.rm = TRUE), .groups = "drop") %>% 
  arrange(desc(avg_arr_delay))

## # A tibble: 48 x 3
##    seats avg_arr_delay avg_dep_delay
##    <int>         <dbl>         <dbl>
##  1   450         120           132  
##  2   147          33.5          42.6
##  3   375          29.8          19.7
##  4   300          24.2          26.9
##  5   100          17.9          18.0
##  6   400          17.8          21.3
##  7    55          15.9          19.2
##  8    11          12.3          15.7
##  9   275          11.9          16.3
## 10     6          10.7          11.6
## #  with 38 more rows
…
